{
  "images" : [
    {
      "idiom" : "universal",
      "filename" : "home.pdf"
    },
    {
      "idiom" : "universal",
      "height-class" : "compact"
    },
    {
      "idiom" : "universal",
      "width-class" : "compact"
    },
    {
      "idiom" : "universal",
      "width-class" : "compact",
      "height-class" : "compact"
    }
  ],
  "info" : {
    "version" : 1,
    "author" : "xcode"
  }
}